results/bfloat_iladata/waveform.vcd
$date
        2023-Nov-29 18:31:46
$end
$version
        Vivado v2019.1 (64-bit)
$end
$timescale
        1ps
$end
$scope module dut $end
$var reg 1 " design_1_i/system_ila_0/inst/probe0_1 $end
$var reg 16 # design_1_i/system_ila_0/inst/probe1_1 [15:0] $end
$var reg 16 3 design_1_i/system_ila_0/inst/probe2_1 [15:0] $end
$var reg 16 C design_1_i/system_ila_0/inst/probe3_1 [15:0] $end
$var reg 1 S _TRIGGER $end
$var reg 1 T _WINDOW $end
$var reg 1 U _GAP $end
$upscope $end
$enddefinitions $end
#0
$dumpvars
1"
b1100000101001011 #
b0 3
b1100000110010111 C
0S
1T
0U
$end
#7
b1100000101001010 #
#22
b1100000101001001 #
b1100000110010110 C
#40
b1100000101001000 #
#43
b1100000110010101 C
#55
b1100000101000111 #
#61
b1100000110010100 C
#70
b1100000101000110 #
#88
b1100000101000101 #
b1100000110010011 C
#103
b1100000101000100 #
#109
b1100000110010010 C
#118
b1100000101000011 #
#124
b1100000110010001 C
#136
b1100000101000010 #
#151
b1100000101000001 #
b1100000110010000 C
#166
b1100000101000000 #
#172
b1100000110001111 C
#184
b1100000100111111 #
#187
b1100000110001110 C
#199
b1100000100111110 #
#214
b1100000100111101 #
#220
b1100000110001101 C
#232
b1100000100111100 #
#247
b1100000100111011 #
b1100000110001100 C
#262
b1100000100111010 #
#268
b1100000110001011 C
#280
b1100000100111001 #
#283
b1100000110001010 C
#295
b1100000100111000 #
#310
b1100000100110111 #
b1100000110001001 C
#328
b1100000100110110 #
#331
b1100000110001000 C
#343
b1100000100110101 #
#346
b1100000110000111 C
#358
b1100000100110100 #
#376
b1100000100110011 #
b1100000110000110 C
#391
b1100000100110010 #
#394
b1100000110000101 C
#406
b1100000100110001 #
#412
b1100000110000100 C
#424
b1100000100110000 #
#439
b1100000100101111 #
b1100000110000011 C
#454
b1100000100101110 #
#460
b1100000110000010 C
#472
b1100000100101101 #
#475
b1100000110000001 C
#487
b1100000100101100 #
#502
b1100000100101011 #
b1100000110000000 C
#512
1S
#520
b1100000100101010 #
#523
b1100000101111111 C
#535
b1100000100101001 #
b1100000101111110 C
#538
b1100000101111101 C
#550
b1100000100101000 #
#556
b1100000101111100 C
#568
b1100000100100111 #
b1100000101111011 C
#571
b1100000101111010 C
#583
b1100000100100110 #
#586
b1100000101111001 C
#598
b1100000100100101 #
b1100000101111000 C
#604
b1100000101110111 C
#616
b1100000100100100 #
#619
b1100000101110110 C
#631
b1100000100100011 #
b1100000101110101 C
#634
b1100000101110100 C
#646
b1100000100100010 #
#652
b1100000101110011 C
#664
b1100000100100001 #
b1100000101110010 C
#667
b1100000101110001 C
#679
b1100000100100000 #
#682
b1100000101110000 C
#694
b1100000100011111 #
b1100000101101111 C
#700
b1100000101101110 C
#712
b1100000100011110 #
#715
b1100000101101101 C
#727
b1100000100011101 #
b1100000101101100 C
#730
b1100000101101011 C
#742
b1100000100011100 #
#748
b1100000101101010 C
#760
b1100000100011011 #
b1100000101101001 C
#763
b1100000101101000 C
#775
b1100000100011010 #
#778
b1100000101100111 C
#790
b1100000100011001 #
b1100000101100110 C
#796
b1100000101100101 C
#808
b1100000100011000 #
#811
b1100000101100100 C
#823
b1100000100010111 #
b1100000101100011 C
#826
b1100000101100010 C
#838
b1100000100010110 #
#844
b1100000101100001 C
#856
b1100000100010101 #
b1100000101100000 C
#859
b1100000101011111 C
#871
b1100000100010100 #
#874
b1100000101011110 C
#886
b1100000100010011 #
b1100000101011101 C
#892
b1100000101011100 C
#904
b1100000100010010 #
#907
b1100000101011011 C
#919
b1100000100010001 #
b1100000101011010 C
#922
b1100000101011001 C
#934
b1100000100010000 #
#940
b1100000101011000 C
#952
b1100000100001111 #
b1100000101010111 C
#955
b1100000101010110 C
#967
b1100000100001110 #
#970
b1100000101010101 C
#982
b1100000100001101 #
b1100000101010100 C
#988
b1100000101010011 C
#1000
b1100000100001100 #
#1003
b1100000101010010 C
#1015
b1100000100001011 #
b1100000101010001 C
#1018
b1100000101010000 C
